<?xml version="1.0" encoding="UTF-8" standalone="no"?>
<!-- Created with Inkscape (http://www.inkscape.org/) -->

<svg
   width="490.4989"
   height="324.4989"
   id="svg1925"
   sodipodi:version="0.32"
   inkscape:version="1.1.1 (3bf5ae0d25, 2021-09-20, custom)"
   sodipodi:docname="nvidia-seeklogo.com.svg"
   version="1.0"
   xmlns:inkscape="http://www.inkscape.org/namespaces/inkscape"
   xmlns:sodipodi="http://sodipodi.sourceforge.net/DTD/sodipodi-0.dtd"
   xmlns="http://www.w3.org/2000/svg"
   xmlns:svg="http://www.w3.org/2000/svg"
   xmlns:rdf="http://www.w3.org/1999/02/22-rdf-syntax-ns#"
   xmlns:cc="http://creativecommons.org/ns#"
   xmlns:dc="http://purl.org/dc/elements/1.1/">
  <defs
     id="defs1927" />
  <sodipodi:namedview
     id="base"
     pagecolor="#ffffff"
     bordercolor="#666666"
     borderopacity="1.0"
     inkscape:pageopacity="0.0"
     inkscape:pageshadow="2"
     inkscape:zoom="0.98994949"
     inkscape:cx="165.15994"
     inkscape:cy="122.22846"
     inkscape:document-units="px"
     inkscape:current-layer="g2100"
     inkscape:window-width="1920"
     inkscape:window-height="1061"
     inkscape:window-x="0"
     inkscape:window-y="19"
     inkscape:pagecheckerboard="0"
     showgrid="false"
     height="324.4989px"
     inkscape:window-maximized="0" />
  <metadata
     id="metadata1930">
    <rdf:RDF>
      <cc:Work
         rdf:about="">
        <dc:format>image/svg+xml</dc:format>
        <dc:type
           rdf:resource="http://purl.org/dc/dcmitype/StillImage" />
      </cc:Work>
    </rdf:RDF>
  </metadata>
  <g
     inkscape:label="Ebene 1"
     inkscape:groupmode="layer"
     id="layer1"
     transform="translate(486.0612,-508.1447)">
    <g
       id="g2100">
      <path
         d="m -303.08679,604.97678 v -29.31802 c 2.84015,-0.20126 5.71374,-0.35776 8.64339,-0.44726 80.17151,-2.51584 132.75808,68.88934 132.75808,68.88934 0,0 -56.80205,78.89687 -117.70781,78.89687 -8.76633,0 -16.62685,-1.42007 -23.69366,-3.79059 v -88.88191 c 31.20761,3.76822 37.48048,17.55504 56.24303,48.82977 l 41.72952,-35.18827 c 0,0 -30.45854,-39.95156 -81.80403,-39.95156 -5.5908,0 -10.93548,0.39131 -16.16852,0.96163 m 0,-96.83204 v 43.78691 c 2.87371,-0.23481 5.75849,-0.41369 8.64339,-0.51438 111.49087,-3.75703 184.11487,91.42012 184.11487,91.42012 0,0 -83.42535,101.4499 -170.33924,101.4499 -7.96132,0 -15.41933,-0.738 -22.41902,-1.97908 v 27.07044 c 5.98212,0.76026 12.19905,1.20752 18.67317,1.20752 80.87596,0 139.36645,-41.30452 196.011987,-90.19011 9.38128,7.52514 47.82339,25.80699 55.73996,33.82413 -53.86144,45.08393 -179.362757,81.42378 -250.510747,81.42378 -6.85437,0 -13.45144,-0.41369 -19.91437,-1.03983 v 38.03949 H 4.3154971 V 508.14474 Z m 0,211.06238 v 23.10109 c -74.81553,-13.32838 -95.57954,-91.09593 -95.57954,-91.09593 0,0 35.92616,-39.79494 95.57954,-46.2355 v 25.34843 c -0.0558,0 -0.0782,-0.0112 -0.12294,-0.0112 -31.29711,-3.75691 -55.76222,25.48268 -55.76222,25.48268 0,0 13.70851,49.24347 55.88516,63.41042 m -132.86995,-71.36043 c 0,0 44.33473,-65.42306 132.86995,-72.18793 v -23.72711 c -98.06193,7.86064 -182.97437,90.90574 -182.97437,90.90574 0,0 48.09177,139.04213 182.97437,151.76675 V 769.37865 C -402.06561,756.92241 -435.95674,647.84669 -435.95674,647.84669"
         style="fill:#77b900;fill-opacity:1;fill-rule:nonzero;stroke:none"
         id="path2045" />
    </g>
  </g>
</svg>
